…
Let's consider some `dplyr` functions that apply to the rows/observations of our dataset.

### a. Filter

Use `filter()` to choose rows/observations verifying some conditions:


```r
# Filter with one criteria
txhousing |>
  filter(city == "Austin")
```

```
## # A tibble: 187 × 9
##    city    year month sales    volume median listings inventory  date
##    <chr>  <int> <int> <dbl>     <dbl>  <dbl>    <dbl>     <dbl> <dbl>
##  1 Austin  2000     1  1025 173053635 133700     3084       2   2000 
##  2 Austin  2000     2  1277 226038438 134000     2989       2   2000.
##  3 Austin  2000     3  1603 298557656 136700     3042       2   2000.
##  4 Austin  2000     4  1556 289197960 136900     3192       2.1 2000.
##  5 Austin  2000     5  1980 393073774 144700     3617       2.3 2000.
##  6 Austin  2000     6  1885 368290072 148800     3799       2.4 2000.
##  7 Austin  2000     7  1818 351539312 149300     3944       2.6 2000.
##  8 Austin  2000     8  1880 360255090 146300     3948       2.6 2001.
##  9 Austin  2000     9  1498 292799874 148700     4058       2.6 2001.
## 10 Austin  2000    10  1524 300952544 150100     4100       2.6 2001.
## # ℹ 177 more rows
```
…
Only 2 rows satisfied these conditions!

### b. Arrange

Use `arrange()` to sort rows/observations for some variables. Default is ascending (from least to greatest or alphabetically for categories) but to sort in the other direction use `desc()`.


```r
# Sort by number of sales, least-to-greatest 
txhousing |>
  arrange(sales)
```

```
## # A tibble: 8,602 × 9
##    city                year month sales  volume median listings inventory  date
##    <chr>              <int> <int> <dbl>   <dbl>  <dbl>    <dbl>     <dbl> <dbl>
##  1 San Marcos          2011    10     6 1156999 180000      163       8.3 2012.
##  2 Harlingen           2000     7     9 1110000  87500      719      30.8 2000.
##  3 South Padre Island  2011     1     9 2088500 225000     1258      55.7 2011 
##  4 San Marcos          2011     1    10 1482310 140000      165       7.5 2011 
##  5 San Marcos          2011    12    10 1561250 140000      148       8   2012.
##  6 San Marcos          2014    11    10 1506878 146700       96       4   2015.
##  7 South Padre Island  2010     1    10 2543721 200000     1290      NA   2010 
##  8 South Padre Island  2010    11    10 2098500 160000     1280      55.9 2011.
##  9 San Marcos          2001     2    11 1445000 126000      260       8.7 2001.
## 10 San Marcos          2008    10    11 1675000 143300      160       7.4 2009.
## # ℹ 8,592 more rows
```


```r
# Sort by number of sales, greatest-to-least (descending order)
txhousing |> 
  arrange(desc(sales))
```

```
## # A tibble: 8,602 × 9
##    city     year month sales     volume median listings inventory  date
##    <chr>   <int> <int> <dbl>      <dbl>  <dbl>    <dbl>     <dbl> <dbl>
##  1 Houston  2015     7  8945 2568156780 217600    23875       3.4 2016.
##  2 Houston  2006     6  8628 1795898108 155200    36281       5.6 2006.
##  3 Houston  2013     7  8468 2168720825 187800    21497       3.3 2014.
##  4 Houston  2015     6  8449 2490238594 222400    22311       3.2 2015.
##  5 Houston  2013     5  8439 2121508529 186100    20526       3.3 2013.
##  6 Houston  2014     6  8391 2342443127 211200    19725       2.9 2014.
##  7 Houston  2014     7  8391 2278932511 199700    20214       3   2014.
##  8 Houston  2014     8  8167 2195184825 202400    20007       2.9 2015.
##  9 Houston  2013     8  8155 2083377894 186700    21366       3.3 2014.
## 10 Houston  2006     5  8040 1602621368 151200    35398       5.5 2006.
## # ℹ 8,592 more rows
```
…
### a. Select

Use `select()` to keep or rename a subset of columns/variables.


```r
# Select to keep only some variables
txhousing |>
  # Only see 4 variables
  select(city, year, month, sales)
```

```
## # A tibble: 8,602 × 4
##    city     year month sales
##    <chr>   <int> <int> <dbl>
##  1 Abilene  2000     1    72
##  2 Abilene  2000     2    98
##  3 Abilene  2000     3   130
##  4 Abilene  2000     4    98
##  5 Abilene  2000     5   141
##  6 Abilene  2000     6   156
##  7 Abilene  2000     7   152
##  8 Abilene  2000     8   131
##  9 Abilene  2000     9   104
## 10 Abilene  2000    10   101
## # ℹ 8,592 more rows
```


```r
# Select to keep columns using indexes of the columns
txhousing |>
  select(1:4,6)
```

```
## # A tibble: 8,602 × 5
##    city     year month sales median
##    <chr>   <int> <int> <dbl>  <dbl>
##  1 Abilene  2000     1    72  71400
##  2 Abilene  2000     2    98  58700
##  3 Abilene  2000     3   130  58100
##  4 Abilene  2000     4    98  68600
##  5 Abilene  2000     5   141  67300
##  6 Abilene  2000     6   156  66900
##  7 Abilene  2000     7   152  73500
##  8 Abilene  2000     8   131  75000
##  9 Abilene  2000     9   104  64500
## 10 Abilene  2000    10   101  59300
## # ℹ 8,592 more rows
```


```r
# Drop variables using "-"
txhousing |>
  # See all but these 4 variables
  select(-city, -year, -month, -date)
```

```
## # A tibble: 8,602 × 5
##    sales   volume median listings inventory
##    <dbl>    <dbl>  <dbl>    <dbl>     <dbl>
##  1    72  5380000  71400      701       6.3
##  2    98  6505000  58700      746       6.6
##  3   130  9285000  58100      784       6.8
##  4    98  9730000  68600      785       6.9
##  5   141 10590000  67300      794       6.8
##  6   156 13910000  66900      780       6.6
##  7   152 12635000  73500      742       6.2
##  8   131 10710000  75000      765       6.4
##  9   104  7615000  64500      771       6.5
## 10   101  7040000  59300      764       6.6
## # ℹ 8,592 more rows
```


```r
# Select and rename...
txhousing |>
  # Use `select()` to rename some variables new_name = old_name
  select(Location = city, 
         Calendar_Year = year,
         Month = month,
         Number_of_sales = sales)
```

```
## # A tibble: 8,602 × 4
##    Location Calendar_Year Month Number_of_sales
##    <chr>            <int> <int>           <dbl>
##  1 Abilene           2000     1              72
##  2 Abilene           2000     2              98
##  3 Abilene           2000     3             130
##  4 Abilene           2000     4              98
##  5 Abilene           2000     5             141
##  6 Abilene           2000     6             156
##  7 Abilene           2000     7             152
##  8 Abilene           2000     8             131
##  9 Abilene           2000     9             104
## 10 Abilene           2000    10             101
## # ℹ 8,592 more rows
```


```r
# or just use rename() with the same structure
txhousing |> 
  rename(Location = city, 
         Calendar_Year = year,
         Month = month,
         Number_of_sales = sales)
```

```
## # A tibble: 8,602 × 9
##    Location Calendar_Year Month Number_of_sales volume median listings inventory
##    <chr>            <int> <int>           <dbl>  <dbl>  <dbl>    <dbl>     <dbl>
##  1 Abilene           2000     1              72 5.38e6  71400      701       6.3
##  2 Abilene           2000     2              98 6.51e6  58700      746       6.6
##  3 Abilene           2000     3             130 9.28e6  58100      784       6.8
##  4 Abilene           2000     4              98 9.73e6  68600      785       6.9
##  5 Abilene           2000     5             141 1.06e7  67300      794       6.8
##  6 Abilene           2000     6             156 1.39e7  66900      780       6.6
##  7 Abilene           2000     7             152 1.26e7  73500      742       6.2
##  8 Abilene           2000     8             131 1.07e7  75000      765       6.4
##  9 Abilene           2000     9             104 7.62e6  64500      771       6.5
## 10 Abilene           2000    10             101 7.04e6  59300      764       6.6
## # ℹ 8,592 more rows
## # ℹ 1 more variable: date <dbl>
```

### b. Mutate

Use `mutate()` to create new columns/variables:


```r
# Find the mean sale price per row
txhousing |> 
  mutate(mean_price = volume/sales)
```

```
## # A tibble: 8,602 × 10
##    city     year month sales   volume median listings inventory  date mean_price
##    <chr>   <int> <int> <dbl>    <dbl>  <dbl>    <dbl>     <dbl> <dbl>      <dbl>
##  1 Abilene  2000     1    72  5380000  71400      701       6.3 2000      74722.
##  2 Abilene  2000     2    98  6505000  58700      746       6.6 2000.     66378.
##  3 Abilene  2000     3   130  9285000  58100      784       6.8 2000.     71423.
##  4 Abilene  2000     4    98  9730000  68600      785       6.9 2000.     99286.
##  5 Abilene  2000     5   141 10590000  67300      794       6.8 2000.     75106.
##  6 Abilene  2000     6   156 13910000  66900      780       6.6 2000.     89167.
##  7 Abilene  2000     7   152 12635000  73500      742       6.2 2000.     83125 
##  8 Abilene  2000     8   131 10710000  75000      765       6.4 2001.     81756.
##  9 Abilene  2000     9   104  7615000  64500      771       6.5 2001.     73221.
## 10 Abilene  2000    10   101  7040000  59300      764       6.6 2001.     69703.
## # ℹ 8,592 more rows
```
…
```
## `summarise()` has grouped output by 'year'. You can override using the
## `.groups` argument.
```

```
## # A tibble: 187 × 4
## # Groups:   year [16]
##     year month total_sales nb_rows
##    <int> <int>       <dbl>   <int>
##  1  2000     1       11411      46
##  2  2000     2       15674      46
##  3  2000     3       20202      46
##  4  2000     4       18658      46
##  5  2000     5       22388      46
##  6  2000     6       23488      46
##  7  2000     7       21104      46
##  8  2000     8       22289      46
##  9  2000     9       17987      46
## 10  2000    10       17396      46
## # ℹ 177 more rows
```
…
