…
```r
txhousing |>
  # Split by year/month
  group_by(year,month) |>
  # Count missing values for each variable
  summarize_all(~ sum(is.na(.)))
```

```
## # A tibble: 187 × 9
## # Groups:   year [16]
##     year month  city sales volume median listings inventory  date
##    <int> <int> <int> <int>  <int>  <int>    <int>     <int> <int>
##  1  2000     1     0     8      8      9        9         9     0
##  2  2000     2     0     7      7      8        8         8     0
##  3  2000     3     0     8      8      9       10        10     0
##  4  2000     4     0     7      7      8        9         9     0
##  5  2000     5     0     7      7      9        8         8     0
##  6  2000     6     0     7      7      9       10        10     0
##  7  2000     7     0     8      8      9        9         9     0
##  8  2000     8     0     7      7      8        8         8     0
##  9  2000     9     0     7      7      8        9         9     0
## 10  2000    10     0     7      7      8       10        10     0
## # ℹ 177 more rows
```

Note that it looks like more recent data is not missing as much as older data.


```r
txhousing |>
  # Split by city
  group_by(city) |>
  # Count missing values for each variable
  summarize_all(~ sum(is.na(.)))
```

```
## # A tibble: 46 × 9
##    city                  year month sales volume median listings inventory  date
##    <chr>                <int> <int> <int>  <int>  <int>    <int>     <int> <int>
##  1 Abilene                  0     0     0      0      0        1         1     0
##  2 Amarillo                 0     0     0      0      0        5         5     0
##  3 Arlington                0     0     0      0      0        1         1     0
##  4 Austin                   0     0     0      0      0        0         0     0
##  5 Bay Area                 0     0     0      0      0        1         1     0
##  6 Beaumont                 0     0     0      0      0        0         0     0
##  7 Brazoria County          0     0    14     14     14       56        58     0
##  8 Brownsville              0     0     2      2      2      104       104     0
##  9 Bryan-College Stati…     0     0     0      0      0        0         0     0
## 10 Collin County            0     0     0      0      0        1         1     0
## # ℹ 36 more rows
```
…
