…
### b. Combining date/time components

We can combine the different parts of a date with `make_date()` or also add time with `make_datetime()`.


```r
# Combine year and month into a date
txhousing |>
  mutate(new_date = make_date(year, month))
```

```
## # A tibble: 8,602 × 10
##    city     year month sales   volume median listings inventory  date new_date  
##    <chr>   <int> <int> <dbl>    <dbl>  <dbl>    <dbl>     <dbl> <dbl> <date>    
##  1 Abilene  2000     1    72  5380000  71400      701       6.3 2000  2000-01-01
##  2 Abilene  2000     2    98  6505000  58700      746       6.6 2000. 2000-02-01
##  3 Abilene  2000     3   130  9285000  58100      784       6.8 2000. 2000-03-01
##  4 Abilene  2000     4    98  9730000  68600      785       6.9 2000. 2000-04-01
##  5 Abilene  2000     5   141 10590000  67300      794       6.8 2000. 2000-05-01
##  6 Abilene  2000     6   156 13910000  66900      780       6.6 2000. 2000-06-01
##  7 Abilene  2000     7   152 12635000  73500      742       6.2 2000. 2000-07-01
##  8 Abilene  2000     8   131 10710000  75000      765       6.4 2001. 2000-08-01
##  9 Abilene  2000     9   104  7615000  64500      771       6.5 2001. 2000-09-01
## 10 Abilene  2000    10   101  7040000  59300      764       6.6 2001. 2000-10-01
## # ℹ 8,592 more rows
```
…
