…
------------------------------------------------------------------------

#### **Try it! Find how many checkout kiosk start with a number.**


```r
metrobike |>
  # for distinct values
  distinct(checkout_kiosk) |>
  # Filter cities starting with A or B
  filter(str_detect(checkout_kiosk, "^[0-9]"))
```

```
## # A tibble: 25 × 1
##    checkout_kiosk                
##    <chr>                         
##  1 23rd/San Jacinto @ DKR Stadium
##  2 21st/Speedway @ PCL           
##  3 6th/Congress                  
##  4 28th/Rio Grande               
##  5 22.5/Rio Grande               
##  6 26th/Nueces                   
##  7 3rd/West                      
##  8 21st/Guadalupe                
##  9 8th/Lavaca                    
## 10 23rd/Pearl                    
## # ℹ 15 more rows
```
…
